^G:\КУРС UE4\16.5\16.5 - GUTOVSKII\16.5 - GUTOVSKII\STDAFX.CPP
/c /ZI /nologo /W3 /WX- /diagnostics:classic /sdl /Od /Oy- /D WIN32 /D _DEBUG /D _CONSOLE /D _UNICODE /D UNICODE /Gm /EHsc /RTC1 /MDd /GS /fp:precise /permissive- /Zc:wchar_t /Zc:forScope /Zc:inline /Yc"stdafx.h" /Fp"DEBUG\16.5 - GUTOVSKII.PCH" /Fo"DEBUG\\" /Fd"DEBUG\VC141.PDB" /Gd /TP /analyze- G:\КУРС UE4\16.5\16.5 - GUTOVSKII\16.5 - GUTOVSKII\STDAFX.CPP
^G:\КУРС UE4\16.5\16.5 - GUTOVSKII\16.5 - GUTOVSKII\16.5 - GUTOVSKII.CPP
/c /ZI /nologo /W3 /WX- /diagnostics:classic /sdl /Od /Oy- /D WIN32 /D _DEBUG /D _CONSOLE /D _UNICODE /D UNICODE /Gm /EHsc /RTC1 /MDd /GS /fp:precise /permissive- /Zc:wchar_t /Zc:forScope /Zc:inline /Yu"stdafx.h" /Fp"DEBUG\16.5 - GUTOVSKII.PCH" /Fo"DEBUG\\" /Fd"DEBUG\VC141.PDB" /Gd /TP /analyze- G:\КУРС UE4\16.5\16.5 - GUTOVSKII\16.5 - GUTOVSKII\16.5 - GUTOVSKII.CPP
